NACHO • NACHO
…
library(GEOquery)
# Download data
gse <- getGEO("GSE70970")
# Get phenotypes
targets <- pData(phenoData(gse[[1]]))
getGEOSuppFiles(GEO = "GSE70970", baseDir = tempdir())
# Unzip data
untar(
  tarfile = paste0(tempdir(), "/GSE70970/GSE70970_RAW.tar"), 
  exdir = paste0(tempdir(), "/GSE70970/Data")
)
# Add IDs
targets$IDFILE <- list.files(paste0(tempdir(), "/GSE70970/Data"))

## # A tibble: 263 x 71
##    IDFILE title geo_accession status submission_date last_update_date type 
##    <chr>  <fct> <chr>         <fct>  <fct>           <fct>            <fct>
##  1 GSM18… NPC-… GSM1824143    Publi… Jul 15 2015     Jul 20 2015      RNA  
##  2 GSM18… NPC-… GSM1824144    Publi… Jul 15 2015     Jul 20 2015      RNA  
##  3 GSM18… NPC-… GSM1824145    Publi… Jul 15 2015     Jul 20 2015      RNA  
##  4 GSM18… NPC-… GSM1824146    Publi… Jul 15 2015     Jul 20 2015      RNA  
##  5 GSM18… NPC-… GSM1824147    Publi… Jul 15 2015     Jul 20 2015      RNA  
##  6 GSM18… NPC-… GSM1824148    Publi… Jul 15 2015     Jul 20 2015      RNA  
##  7 GSM18… NPC-… GSM1824149    Publi… Jul 15 2015     Jul 20 2015      RNA  
##  8 GSM18… NPC-… GSM1824150    Publi… Jul 15 2015     Jul 20 2015      RNA  
##  9 GSM18… NPC-… GSM1824151    Publi… Jul 15 2015     Jul 20 2015      RNA  
## 10 GSM18… NPC-… GSM1824152    Publi… Jul 15 2015     Jul 20 2015      RNA  
## # … with 253 more rows, and 64 more variables: channel_count <fct>,
## #   source_name_ch1 <fct>, organism_ch1 <fct>, characteristics_ch1 <fct>,
## #   characteristics_ch1.1 <fct>, characteristics_ch1.2 <fct>,
## #   characteristics_ch1.3 <fct>, characteristics_ch1.4 <fct>,
## #   characteristics_ch1.5 <fct>, characteristics_ch1.6 <fct>,
## #   characteristics_ch1.7 <fct>, characteristics_ch1.8 <fct>,
## #   characteristics_ch1.9 <fct>, characteristics_ch1.10 <fct>,
## #   characteristics_ch1.11 <fct>, characteristics_ch1.12 <fct>,
## #   characteristics_ch1.13 <fct>, characteristics_ch1.14 <fct>,
…
