NACHO Analysis • NACHO
…
Get the phenotypes

selected_pheno <- GSE70970[["nacho"]] %>% 
  select(IDFILE, `age:ch1`, `gender:ch1`, `chemo:ch1`, `disease.event:ch1`) %>% 
  distinct() %>% 
  mutate_all(~ na_if(.x, "NA")) %>% 
  drop_na()

## # A tibble: 246 x 5
##    IDFILE                 `age:ch1`  `gender:ch1` `chemo:ch1` `disease.event:ch…
##    <chr>                  <chr>      <chr>        <chr>       <chr>             
##  1 GSM1824143_NPC-T-1.RC… 45.972602… Male         0           1                 
##  2 GSM1824144_NPC-T-10.R… 46.4       Male         1           1                 
##  3 GSM1824145_NPC-T-100.… 50.364383… Male         0           0                 
##  4 GSM1824146_NPC-T-101.… 64.090410… Female       1           0                 
##  5 GSM1824147_NPC-T-102.… 27.578082… Male         1           1                 
##  6 GSM1824148_NPC-T-103.… 67.013698… Male         1           0                 
##  7 GSM1824149_NPC-T-104.… 34.030136… Male         1           1                 
##  8 GSM1824150_NPC-T-105.… 52.167123… Male         0           1                 
##  9 GSM1824151_NPC-T-106.… 34.032876… Male         0           0                 
## 10 GSM1824152_NPC-T-107.… 48.6630137 Female       1           0                 
## # … with 236 more rows

Get the normalised counts

expr_counts <- GSE70970[["nacho"]] %>% 
  filter(grepl("Endogenous", CodeClass)) %>% 
  select(IDFILE, Name, Count_Norm) %>% 
  pivot_wider(names_from = "Name", values_from = "Count_Norm") %>% 
  column_to_rownames("IDFILE") %>% 
  t()

## # A tibble: 772 x 263
##    `GSM1824143_NPC… `GSM1824144_NPC… `GSM1824145_NPC… `GSM1824146_NPC…
##               <dbl>            <dbl>            <dbl>            <dbl>
##  1                5                3               13                1
##  2                0                0                0                0
##  3                1                0                0                1
##  4                5               20               31                3
##  5              864              725              889              875
##  6                5                7               25                4
##  7                6               15               45                5
##  8               43               94               31              234
##  9              429              839             2296             1457
## 10              122              119               48               23
## # … with 762 more rows, and 259 more variables:
## #   `GSM1824147_NPC-T-102.RCC.gz` <dbl>, `GSM1824148_NPC-T-103.RCC.gz` <dbl>,
## #   `GSM1824149_NPC-T-104.RCC.gz` <dbl>, `GSM1824150_NPC-T-105.RCC.gz` <dbl>,
## #   `GSM1824151_NPC-T-106.RCC.gz` <dbl>, `GSM1824152_NPC-T-107.RCC.gz` <dbl>,
## #   `GSM1824153_NPC-T-108.RCC.gz` <dbl>, `GSM1824154_NPC-T-109.RCC.gz` <dbl>,
## #   `GSM1824155_NPC-T-11.RCC.gz` <dbl>, `GSM1824156_NPC-T-110.RCC.gz` <dbl>,
## #   `GSM1824157_NPC-T-111.RCC.gz` <dbl>, `GSM1824158_NPC-T-112.RCC.gz` <dbl>,
## #   `GSM1824159_NPC-T-113.RCC.gz` <dbl>, `GSM1824160_NPC-T-114.RCC.gz` <dbl>,
## #   `GSM1824161_NPC-T-115.RCC.gz` <dbl>, `GSM1824162_NPC-T-116.RCC.gz` <dbl>,
…
unnest(res, lm)
## # A tibble: 2,936 x 7
## # Groups:   Name, Accession [1,468]
##    Name            Accession  term        estimate std.error statistic   p.value
##    <chr>           <chr>      <chr>          <dbl>     <dbl>     <dbl>     <dbl>
##  1 bkv-miR-B1-3p+… MIMAT0009… (Intercept)    6.01      1.32     4.55     1.28e-5
##  2 bkv-miR-B1-3p+… MIMAT0009… `disease.e…   -1.27      2.37    -0.536    5.93e-1
##  3 bkv-miR-B1-3p+… nmiR00717… (Intercept)   33.0      11.3      2.92     4.21e-3
##  4 bkv-miR-B1-3p+… nmiR00717… `disease.e…    0.465    18.0      0.0259   9.79e-1
##  5 bkv-miR-B1-5p   MIMAT0009… (Intercept)    1.40      0.534    2.61     1.01e-2
##  6 bkv-miR-B1-5p   MIMAT0009… `disease.e…    1.45      0.956    1.52     1.32e-1
##  7 bkv-miR-B1-5p   nmiR00718… (Intercept)   16.3      12.5      1.30     1.96e-1
##  8 bkv-miR-B1-5p   nmiR00718… `disease.e…  -10.4      19.9     -0.521    6.03e-1
##  9 ebv-miR-BART1-… MIMAT0003… (Intercept) 1520.      254.       5.98     2.25e-8
## 10 ebv-miR-BART1-… MIMAT0003… `disease.e…  102.      455.       0.225    8.22e-1
## # … with 2,926 more rows
…
